…
Tweets data

Data returned by search_tweets is quite extensive. One recently added feature makes navigating the data a bit easier. As of version 0.4.3, rtweet returns tibble data frames (assuming the user has installed the tibble package, which is a dependency for nearly all packages in the tidyverse). Tibbles are especially nice when working with larger data sets because accidental printing in R has been known to take years off of one’s life (needs citation).

ts_filter and ts_plot

Included in the rtweet package are a few convenenience functions, which have been designed to assist in the analysis of Twitter data. One of these convenient functions is ts_plot, which is a plot-based wrapper around ts_filter. The ts_plot and ts_filter functions aggregate the frequency of tweets over specified intervals of time. Hence, the “ts” (time series) naming convention. In addition to aggregating the frequency of statuses, ts_plot will also plot the time series.

## aggregate freq of tweets in one-hour intervals
agg <- ts_filter(ica17, by = "hours")

## view data
agg

## # A tibble: 212 x 3
##                   time  freq filter
##                 <dttm> <dbl>  <chr>
##  1 2017-05-16 20:00:00     2       
##  2 2017-05-16 21:00:00     0       
##  3 2017-05-16 22:00:00     0       
##  4 2017-05-16 23:00:00     0       
##  5 2017-05-17 00:00:00     1       
##  6 2017-05-17 01:00:00     0       
##  7 2017-05-17 02:00:00     0       
##  8 2017-05-17 03:00:00     0       
##  9 2017-05-17 04:00:00     0       
## 10 2017-05-17 05:00:00     0       
## # ... with 202 more rows
…
Get sentiment analysis

## conduct sentiment analysis
sa <- syuzhet::get_nrc_sentiment(df$text_plain)

## view output
tibble::as_tibble(sa)

## # A tibble: 23,467 x 10
##    anger anticipation disgust  fear   joy sadness surprise trust
##    <dbl>        <dbl>   <dbl> <dbl> <dbl>   <dbl>    <dbl> <dbl>
##  1     1            0       0     1     0       1        0     0
##  2     0            0       0     0     0       0        0     1
##  3     0            0       0     0     0       1        1     0
##  4     0            0       0     0     0       1        1     0
##  5     0            0       0     0     0       1        1     0
##  6     0            0       0     0     0       0        0     0
##  7     0            1       0     0     0       0        0     1
##  8     0            0       0     0     0       0        0     0
##  9     0            0       0     0     0       1        1     0
## 10     0            0       1     0     0       1        0     0
## # ... with 23,457 more rows, and 2 more variables: negative <dbl>,
## #   positive <dbl>
…
## view data
long_emotion_ts

## Source: local data frame [720 x 4]
## Groups: created_at, query [?]
## 
## # A tibble: 720 x 4
##             created_at           query    sentiment     score
##                 <dttm>           <chr>        <chr>     <dbl>
##  1 2017-08-06 07:00:00 CBO health care        anger 0.1428571
##  2 2017-08-06 07:00:00 CBO health care anticipation 1.2857143
##  3 2017-08-06 07:00:00 CBO health care      disgust 0.0000000
##  4 2017-08-06 07:00:00 CBO health care         fear 0.1428571
##  5 2017-08-06 07:00:00 CBO health care          joy 1.0000000
##  6 2017-08-06 07:00:00 CBO health care     negative 0.0000000
##  7 2017-08-06 07:00:00 CBO health care     positive 1.8571429
##  8 2017-08-06 07:00:00 CBO health care      sadness 0.0000000
##  9 2017-08-06 07:00:00 CBO health care     surprise 1.0000000
## 10 2017-08-06 07:00:00 CBO health care        trust 0.1428571
## # ... with 710 more rows
…
